{
  
  "sp" : {
    "elements": {
      
      "title": "Confia en Mi"

      , "selectedtabs": [
        { "content": "Primer mensaje" , "label": "first" },
        { "content": "Segundo mensaje" , "label": "second" },
        { "content": "Tercer mensaje" , "label": "third" },
        { "content": "Cuarto mensaje" , "label": "fourth" } 
      ]

      , "greeting" : "A todos mi hijos y hijas queridos"

      , "days": [
        { "label": "first"
        , "paragraphs": [ "Yo hago milagros en la medida en que tu te abandonas a mi y de acuerdo a la fe que me tienes." , "Así que no te preocupes." , "Dame todas tus frustraciones y duerme en paz." , "Y, siempre dime «JESÚS YO CONFIO EN TI» y verás grandes milagros." , "Te lo prometo con todo mi amor." ] }
        
        , { "label": "second"
        ,  "paragraphs": [ "Lo que más te lastima es cuando tratas de razonarlo todo de acuerdo a tus pensamientos e intentas resolver tus problemas a tu manera." , "Cuando me digas «JESÚS YO CONFIO EN TI» no seas como el impaciente que le dice al Doctor «cúreme»; sino pide que le sugiere la \"mejor\" forma de hacerlo." , "Déjate curar por mis brazos divinos; no tengas miedo." , "Yo te amo." ] }

        , {"label": "third"
        ,  "paragraphs": [ "Si ves que las cosas se vuelven peores o más complicadas aún cuando tú estás orando, mantente confiado en mí." , "Cierra los ojos de tu alma y continua diciendo a cada hora «JESÚS YO CONFIO EN TI»." , "Necesito mis manos libres para poder manifestarte mis bendiciones." , "No ates a mis manos con tus absurdas preocupaciones. Satanás quiere que te frustres, hacerte sentir triste y quitarte la paz." , "Confia en mi, descansa en mi, entrégate a mi." ] }
        
        , { "label": "fourth"
        ,  "paragraphs": [ "Trata de evitar esos pensamientos que te angustian al querer comprender las cosas que te pasan." , "No arruines mis planes tratando de imponer tus ideas. Déjame ser tu DIOS y actuar libremente en tu vida." , "Entrégate a mi con completa confianza y deja tu futuro en mis manos." , "Dime frecuentemente, «JESÚS YO CONFIO EN TI»." ] }
      ]

      , "closing": { 
        "parentheses": "firmado"
        , "signature": "JESÚS"
      }

    }
  }

  , "en" : {
    
    "elements": {
      
      "title": "Trust in Me"

      , "selectedtabs": [
        { "content": "First message" , "label": "first" },
        { "content": "Second message" , "label": "second" },
        { "content": "Third message" , "label": "third" },
        { "content": "Fourth message" , "label": "fourth" } 
      ]

      , "greeting" : "To all of my precious sons and daughters"

      , "days": [

        { "label": "first"
        , "paragraphs": [ "I work miracles to the extent that you give yourself unto me and according to the faith you have for me." , "So do not worry." , "Give me all of your frustrations and sleep peacefully." , "And, always tell me \"JESUS, I HAVE FAITH IN YOU\" and you will see great miracles." , "I promise you this with all of my love." ] }
        
        , { "label": "second"
        , "paragraphs": [ "What harms you the most is when you try to reason everything according to your thoughts and try to solve your problems in your own way." , "When you tell me \"JESUS, I HAVE FAITH IN YOU, \" do not be like a sick patient that tells the doctor \"just heal me\"; rather, let them suggest the \"best\" way to heal you." , "Let yourself be healed in my divine arms; and, do not be afraid." , "I love you." ]}

        , { "label": "third"
        , "paragraphs": [ "If you see things getting worse and more complicated even when you are praying, maintain your trust in me." , "Close your soul's eyes and continue saying every hour \"JESUS, I HAVE FAITH IN YOU.\"" , "I need free use of my hands so that my blessings can be made manifest in you." , "Do not tie my hands with your absurd concerns. Satan wants you to get frustrated, make you feel sad and he wants take away your peace." , "Trust me, find rest in me, and surrender yourself to me." ]}
        
        , { "label": "fourth"
        , "paragraphs": [ "Try to avoid those thoughts that put your mind at unease when you try to understand the things that happen to you." , "Don't ruin my plans by trying to impose your own ideas. Let me be your GOD and let me act freely in your life." , "Surrender to me with complete confidence and leave your future in my hands." , "Tell me frequently, \"JESUS, I HAVE FAITH IN YOU.\"" ]}

      ]

      , "closing": { 
        "parentheses": "signed"
        , "signature": "JESUS"
      }

    }
  }

}